{
"type": "FeatureCollection",
"name": "bu_centro_3042",
"crs": { "type": "name", "properties": { "name": "urn:ogc:def:crs:EPSG::3042" } },
"features": [
{ "type": "Feature", "properties": { }, "geometry": { "type": "Polygon", "coordinates": [ [ [ 439870.070309591013938, 4686913.890789767727256 ], [ 443653.19354776077671, 4686882.456904387101531 ], [ 443675.000003727269359, 4689594.378863538615406 ], [ 439893.34101929073222, 4689625.815283138304949 ], [ 439870.070309591013938, 4686913.890789767727256 ] ] ] } }
]
}
